{
    "message.error.common.login.user_id.required": "請務必輸入登錄ID。",
    "screen.common.action.login": "登录",
    "screen.common.action.language": "语言",
    "attribute.user_id": "登录ID",
    "attribute.user_password": "密码"
}